…
To get a better idea of the characteristics and returns pf the stocks and SPY, we will now summarise monthly returns beginning 01. January 2007 and look at the Minimum, Maximum, Median, Mean and Standard Deviation of the returns.

# Summarise Statistics
monthly_summarise <- myStocks_returns_monthly %>% 
  filter(date >= 2017-01-01) %>% 
  group_by(symbol) %>% 
  summarise(min_return = min(monthly_returns), #Minimum
            max_return = max(monthly_returns), #Maximum
            med_return = median(monthly_returns), #Median
            mean_return = mean(monthly_returns), #Mean
            sd_return = sd(monthly_returns)) #Standard Deviation
  
print(monthly_summarise)

## # A tibble: 31 x 6
##    symbol min_return max_return med_return mean_return sd_return
##    <chr>       <dbl>      <dbl>      <dbl>       <dbl>     <dbl>
##  1 AAPL       -0.577      0.454     0.0352     0.0275     0.116 
##  2 AMGN       -0.170      0.328     0.0104     0.00916    0.0738
##  3 AXP        -0.279      0.875     0.0102     0.00818    0.0918
##  4 BA         -0.458      0.257     0.0179     0.0120     0.0887
##  5 CAT        -0.353      0.350     0.0133     0.0143     0.0908
##  6 CRM        -0.360      0.403     0.0205     0.0276     0.113 
##  7 CSCO       -0.367      0.389     0.0125     0.00495    0.0971
##  8 CVX        -0.224      0.270     0.0122     0.00852    0.0630
##  9 DIS        -0.268      0.234     0.0107     0.00980    0.0725
## 10 DOW        -0.276      0.255     0.0456     0.00898    0.128 
## # … with 21 more rows
…
