Insights to airbnb Shanghai · Luca Schiek
…
After manually checking the data, it seems that most of the observations that have missing values for cleaning_fee are because they do not charge for the cleaning fee. So the missing values are replaced by 0.

#2 Property Type

#count the property type
count_property<-listings_filtered %>% 
count(property_type)
count_property

## # A tibble: 42 x 2
##    property_type         n
##    <chr>             <int>
##  1 Aparthotel           38
##  2 Apartment          5405
##  3 Barn                  5
##  4 Bed and breakfast   327
##  5 Boat                  1
##  6 Boutique hotel      156
##  7 Bungalow             49
##  8 Bus                   1
##  9 Cabin                13
## 10 Camper/RV             4
## # … with 32 more rows

#find top 4 types of property
count_property %>% 
  arrange(desc(n))

## # A tibble: 42 x 2
##    property_type          n
##    <chr>              <int>
##  1 Apartment           5405
##  2 Condominium         1693
##  3 House               1484
##  4 Villa               1122
##  5 Loft                 753
##  6 Serviced apartment   631
##  7 Townhouse            451
##  8 Bed and breakfast    327
##  9 Farm stay            171
## 10 Boutique hotel       156
## # … with 32 more rows

#create a simplified version of property_type variable that has 5 categories
listings_filtered <- listings_filtered %>%
  mutate(prop_type_simplified = case_when(
    property_type %in% c("Apartment","Villa", "House","Condominium") ~ property_type, 
    TRUE ~ "Other"
  ))

#check that prop_type_simplified was correctly made
listings_filtered %>%
  count(property_type, prop_type_simplified) %>%
  arrange(desc(n))       

## # A tibble: 42 x 3
##    property_type      prop_type_simplified     n
##    <chr>              <chr>                <int>
##  1 Apartment          Apartment             5405
##  2 Condominium        Condominium           1693
##  3 House              House                 1484
##  4 Villa              Villa                 1122
##  5 Loft               Other                  753
##  6 Serviced apartment Other                  631
##  7 Townhouse          Other                  451
##  8 Bed and breakfast  Other                  327
##  9 Farm stay          Other                  171
## 10 Boutique hotel     Other                  156
## # … with 32 more rows

3# Minimum Nights

#most common values for minimum nights
listings_filtered %>%
  count(minimum_nights) %>%
  arrange(desc(n)) 

## # A tibble: 55 x 2
##    minimum_nights     n
##             <dbl> <int>
##  1              1  9927
##  2              2  1148
##  3              3   456
##  4             30   344
##  5              7   213
##  6              5   165
##  7             15    87
##  8             10    84
##  9              4    58
## 10             60    46
## # … with 45 more rows
…
